Exploratory Data Analysis
…
The View() function opens up the dataset in RStudios data viewer window, which allows you to browse and sort the data much like an Excel spreadsheet - though you cannot edit the data here.

Lets extend this same code to provide us with the counts of each assessment by year. Presumably some assessments were discontinued and we want to evaluate which assessments were consistent across years. This will require us to dip our toe into reshaping data - for readability purposes. To do that well load the tidyr library. Well learn more about reshaping data in guide 2, but for now the spread() function helps us take the data repeated by school_year and make it into columns for each school_year - which is easier to read.

library(tidyr) # install.packages("tidyr") if it is not on your computer
stu_test %>% group_by(school_year) %>%
  count(test_id) %>% 
  tidyr::spread(school_year, n, sep = "_") %>% 
  arrange(desc(school_year_2010))

## # A tibble: 110 x 6
##    test_id school_year_2006 school_year_2007 school_year_2008 school_year_2009 school_year_2010
##    <chr>              <int>            <int>            <int>            <int>            <int>
##  1 RD03                2793             3294             3396             4042             4296
##  2 SC05                  NA               NA             2820             3936             4047
##  3 MA03                2792             3383             3487             3719             4000
##  4 RD05                2733             3067             3254             3891             3996
##  5 RD04                2722             2881             3097             3917             3937
##  6 ENGL                2757             3056             3474             3505             3930
##  7 RD07                2686             2820             2932             3757             3884
##  8 ALG1                2914             3318             3561             3773             3842
##  9 RD08                2598             2999             3227             3821             3795
## 10 CECO                2624             2888             3109             3084             3765
## # ... with 100 more rows
…
table(is.na(stu_test$z_score))

## 
##  FALSE   TRUE 
## 364897  83465

This variable has much more missingness than the score variable - so if it was a simple translation of the score variable, something has happened. Now is a good time to use our EDA skills to look at the patterns of missingness by other attributes. Lets look at how much data is missing by test_id:

stu_test %>% group_by(test_id) %>% 
  summarize(missing_n = sum(is.na(z_score)), 
            total_n = n()) %>% 
  arrange(desc(total_n))

## # A tibble: 110 x 3
##    test_id missing_n total_n
##    <chr>       <int>   <int>
##  1 RD03          414   17821
##  2 ALG1           63   17408
##  3 MA03           40   17381
##  4 RD05          435   16941
##  5 MA05           17   16794
##  6 ENGL           76   16722
##  7 RD04           10   16554
##  8 RD08          465   16440
##  9 MA08           13   16286
## 10 COMP        16257   16257
## # ... with 100 more rows
…
## [1] NA  "Y"

Now, we have the question of what to do with the NA values. It seems reasonable to assume that some assessments do not offer accommodations, so the missingness may be from that assessment not having any data in those fields, and also the lack of data meaning that no accommodation was received. In cases where some students are given an accommodation, we may need to proceed with more caution, as missing values here could mean the student was not offered an accommodation or that the accommodation code was invalid when the data was stored in the assessment table.

stu_test %>% group_by(test_id) %>% 
  summarize(accom_count = sum(!is.na(accommodation)), 
            test_count = n()) %>% 
  mutate(accom_per = accom_count/test_count) %>% 
  arrange(desc(accom_per))

## # A tibble: 38 x 4
##    test_id accom_count test_count accom_per
##    <chr>         <int>      <int>     <dbl>
##  1 SC08           1168      10937    0.107 
##  2 SC05           1282      12076    0.106 
##  3 MA04           1265      17904    0.0707
##  4 RD05           1316      18815    0.0699
##  5 MA05           1303      18685    0.0697
##  6 RD04           1284      18468    0.0695
##  7 RD08           1268      18309    0.0693
##  8 PSCI            323       4696    0.0688
##  9 MA08           1218      18118    0.0672
## 10 MA07           1140      17408    0.0655
## # ... with 28 more rows
…
Now our data is unique at the student-year-test level, lets look at what we might want to do with it. Another key step in defining our rows is in possibly constructing measures that are aggregates of rows. A common analysis we may wish to do is to look at the average test score by school, and compare how each student does relative to their peers in the same school. This type of aggregation work is helpful for both modeling and for reporting. Luckily, we already have learned the commands we need to do this above:

stu_test <- stu_test %>% group_by(test_id, school_year, schid) %>% 
  mutate(sch_avg_score = mean(score, na.rm = TRUE), # we don't have any NA values in score, but 
         # we  want to get in the habit of including this code here
         sch_test_n = n()) %>% ungroup

Lets visually inspect 50 random rows of this data:

stu_test %>% dplyr::sample_n(50) %>% 
  dplyr::select(test_id, school_year, schid, score, sch_avg_score, sch_test_n) %>%  
  print

## # A tibble: 50 x 6
##    test_id school_year schid score sch_avg_score sch_test_n
##    <chr>         <dbl> <dbl> <dbl>         <dbl>      <int>
##  1 RD04           2010    11   351          350.         39
##  2 USHI           2010    37   160          155.         45
##  3 USHI           2009    20   146          154          26
##  4 USHI           2007    82   154          152.         28
##  5 GEOM           2010    51   163          155.         34
##  6 SC08           2010    46   173          157.         44
##  7 MA06           2009    63   348          359.         43
##  8 ENGL           2007    82   164          156.         30
##  9 MA08           2007    46   366          363.         38
## 10 BIOL           2008    48   173          156.         33
## # ... with 40 more rows
…
